solid OpenSCAD_Model
  facet normal -1 0 0
    outer loop
      vertex -26 -7.5 -13.5
      vertex -26 -7.5 13.5
      vertex -26 7.5 -13.5
    endloop
  endfacet
  facet normal -1 0 0
    outer loop
      vertex -26 7.5 -13.5
      vertex -26 -7.5 13.5
      vertex -26 7.5 13.5
    endloop
  endfacet
  facet normal 0 -1 0
    outer loop
      vertex -23 -7.5 -10.5
      vertex -26 -7.5 -13.5
      vertex 26 -7.5 -13.5
    endloop
  endfacet
  facet normal 0 -1 0
    outer loop
      vertex -26 -7.5 13.5
      vertex -26 -7.5 -13.5
      vertex -23 -7.5 -10.5
    endloop
  endfacet
  facet normal 0 -1 0
    outer loop
      vertex -23 -7.5 10.5
      vertex 23 -7.5 10.5
      vertex -26 -7.5 13.5
    endloop
  endfacet
  facet normal 0 -1 0
    outer loop
      vertex -26 -7.5 13.5
      vertex -23 -7.5 -10.5
      vertex -23 -7.5 10.5
    endloop
  endfacet
  facet normal 0 -1 0
    outer loop
      vertex 26 -7.5 13.5
      vertex 23 -7.5 10.5
      vertex 26 -7.5 -13.5
    endloop
  endfacet
  facet normal 0 -1 0
    outer loop
      vertex 26 -7.5 13.5
      vertex -26 -7.5 13.5
      vertex 23 -7.5 10.5
    endloop
  endfacet
  facet normal 0 -1 0
    outer loop
      vertex 23 -7.5 10.5
      vertex 23 -7.5 -10.5
      vertex 26 -7.5 -13.5
    endloop
  endfacet
  facet normal 0 -1 0
    outer loop
      vertex 23 -7.5 -10.5
      vertex -23 -7.5 -10.5
      vertex 26 -7.5 -13.5
    endloop
  endfacet
  facet normal 0 0 -1
    outer loop
      vertex -26 -7.5 -13.5
      vertex -26 7.5 -13.5
      vertex 26 -7.5 -13.5
    endloop
  endfacet
  facet normal 0 0 -1
    outer loop
      vertex 26 -7.5 -13.5
      vertex -26 7.5 -13.5
      vertex 26 7.5 -13.5
    endloop
  endfacet
  facet normal 0 1 0
    outer loop
      vertex -11.0922 7.5 8.67195
      vertex -26 7.5 13.5
      vertex 26 7.5 13.5
    endloop
  endfacet
  facet normal 0 1 0
    outer loop
      vertex -26 7.5 -13.5
      vertex -26 7.5 13.5
      vertex -22.4472 7.5 0.973071
    endloop
  endfacet
  facet normal 0 1 0
    outer loop
      vertex -5.33182 7.5 3.779
      vertex 4.97112 7.5 -2.87371
      vertex -4.71042 7.5 1.93473
    endloop
  endfacet
  facet normal 0 1 0
    outer loop
      vertex -26 7.5 -13.5
      vertex -22.4472 7.5 0.973071
      vertex -22.4472 7.5 -0.973071
    endloop
  endfacet
  facet normal 0 1 0
    outer loop
      vertex -26 7.5 -13.5
      vertex -22.4472 7.5 -0.973071
      vertex -22.0289 7.5 -2.87371
    endloop
  endfacet
  facet normal 0 1 0
    outer loop
      vertex -26 7.5 -13.5
      vertex -22.0289 7.5 -2.87371
      vertex -21.2117 7.5 -4.63998
    endloop
  endfacet
  facet normal 0 1 0
    outer loop
      vertex -26 7.5 -13.5
      vertex -21.2117 7.5 -4.63998
      vertex -20.034 7.5 -6.18929
    endloop
  endfacet
  facet normal 0 1 0
    outer loop
      vertex -26 7.5 -13.5
      vertex -20.034 7.5 -6.18929
      vertex -18.5507 7.5 -7.4492
    endloop
  endfacet
  facet normal 0 1 0
    outer loop
      vertex -26 7.5 -13.5
      vertex -18.5507 7.5 -7.4492
      vertex -16.8312 7.5 -8.36079
    endloop
  endfacet
  facet normal 0 1 0
    outer loop
      vertex -26 7.5 -13.5
      vertex -16.8312 7.5 -8.36079
      vertex -14.956 7.5 -8.88144
    endloop
  endfacet
  facet normal 0 1 0
    outer loop
      vertex -26 7.5 -13.5
      vertex -14.956 7.5 -8.88144
      vertex 26 7.5 -13.5
    endloop
  endfacet
  facet normal 0 1 0
    outer loop
      vertex -14.956 7.5 -8.88144
      vertex -13.0127 7.5 -8.9868
      vertex 26 7.5 -13.5
    endloop
  endfacet
  facet normal 0 1 0
    outer loop
      vertex -9.28432 7.5 -7.95161
      vertex 26 7.5 -13.5
      vertex -11.0922 7.5 -8.67195
    endloop
  endfacet
  facet normal 0 1 0
    outer loop
      vertex -7.67352 7.5 -6.85946
      vertex 26 7.5 -13.5
      vertex -9.28432 7.5 -7.95161
    endloop
  endfacet
  facet normal 0 1 0
    outer loop
      vertex -6.33516 7.5 -5.44657
      vertex 26 7.5 -13.5
      vertex -7.67352 7.5 -6.85946
    endloop
  endfacet
  facet normal 0 1 0
    outer loop
      vertex -5.33182 7.5 -3.779
      vertex 26 7.5 -13.5
      vertex -6.33516 7.5 -5.44657
    endloop
  endfacet
  facet normal 0 1 0
    outer loop
      vertex 4.97112 7.5 -2.87371
      vertex -5.33182 7.5 3.779
      vertex 4.55276 7.5 -0.973071
    endloop
  endfacet
  facet normal 0 1 0
    outer loop
      vertex 5.78829 7.5 -4.63998
      vertex -4.5 7.5 2.10942e-15
      vertex -4.71042 7.5 1.93473
    endloop
  endfacet
  facet normal 0 1 0
    outer loop
      vertex -20.034 7.5 6.1893
      vertex -26 7.5 13.5
      vertex -18.5507 7.5 7.4492
    endloop
  endfacet
  facet normal 0 1 0
    outer loop
      vertex 8.44932 7.5 -7.4492
      vertex -4.71042 7.5 -1.93473
      vertex 6.96604 7.5 -6.18929
    endloop
  endfacet
  facet normal 0 1 0
    outer loop
      vertex -18.5507 7.5 7.4492
      vertex -26 7.5 13.5
      vertex -16.8312 7.5 8.36079
    endloop
  endfacet
  facet normal 0 1 0
    outer loop
      vertex -13.0127 7.5 8.9868
      vertex -26 7.5 13.5
      vertex -11.0922 7.5 8.67195
    endloop
  endfacet
  facet normal 0 1 0
    outer loop
      vertex 10.1688 7.5 8.36079
      vertex -5.33182 7.5 3.779
      vertex 26 7.5 13.5
    endloop
  endfacet
  facet normal 0 1 0
    outer loop
      vertex -16.8312 7.5 8.36079
      vertex -26 7.5 13.5
      vertex -14.956 7.5 8.88144
    endloop
  endfacet
  facet normal 0 1 0
    outer loop
      vertex -5.33182 7.5 3.779
      vertex -6.33516 7.5 5.44657
      vertex 26 7.5 13.5
    endloop
  endfacet
  facet normal 0 1 0
    outer loop
      vertex -6.33516 7.5 5.44657
      vertex -7.67352 7.5 6.85946
      vertex 26 7.5 13.5
    endloop
  endfacet
  facet normal 0 1 0
    outer loop
      vertex -14.956 7.5 8.88144
      vertex -26 7.5 13.5
      vertex -13.0127 7.5 8.9868
    endloop
  endfacet
  facet normal 0 1 0
    outer loop
      vertex -7.67352 7.5 6.85946
      vertex -9.28432 7.5 7.95161
      vertex 26 7.5 13.5
    endloop
  endfacet
  facet normal 0 1 0
    outer loop
      vertex -9.28432 7.5 7.95161
      vertex -11.0922 7.5 8.67195
      vertex 26 7.5 13.5
    endloop
  endfacet
  facet normal 0 1 0
    outer loop
      vertex -21.2117 7.5 4.63999
      vertex -26 7.5 13.5
      vertex -20.034 7.5 6.1893
    endloop
  endfacet
  facet normal 0 1 0
    outer loop
      vertex -22.0289 7.5 2.87371
      vertex -26 7.5 13.5
      vertex -21.2117 7.5 4.63999
    endloop
  endfacet
  facet normal 0 1 0
    outer loop
      vertex -22.4472 7.5 0.973071
      vertex -26 7.5 13.5
      vertex -22.0289 7.5 2.87371
    endloop
  endfacet
  facet normal 0 1 0
    outer loop
      vertex 4.55276 7.5 -0.973071
      vertex -5.33182 7.5 3.779
      vertex 4.55276 7.5 0.973071
    endloop
  endfacet
  facet normal 0 1 0
    outer loop
      vertex 5.78829 7.5 -4.63998
      vertex -4.71042 7.5 1.93473
      vertex 4.97112 7.5 -2.87371
    endloop
  endfacet
  facet normal 0 1 0
    outer loop
      vertex -4.71042 7.5 -1.93473
      vertex -4.5 7.5 2.10942e-15
      vertex 5.78829 7.5 -4.63998
    endloop
  endfacet
  facet normal 0 1 0
    outer loop
      vertex -4.71042 7.5 -1.93473
      vertex 5.78829 7.5 -4.63998
      vertex 6.96604 7.5 -6.18929
    endloop
  endfacet
  facet normal 0 1 0
    outer loop
      vertex -5.33182 7.5 -3.779
      vertex -4.71042 7.5 -1.93473
      vertex 8.44932 7.5 -7.4492
    endloop
  endfacet
  facet normal 0 1 0
    outer loop
      vertex -5.33182 7.5 -3.779
      vertex 8.44932 7.5 -7.4492
      vertex 10.1688 7.5 -8.36079
    endloop
  endfacet
  facet normal 0 1 0
    outer loop
      vertex -5.33182 7.5 -3.779
      vertex 10.1688 7.5 -8.36079
      vertex 26 7.5 -13.5
    endloop
  endfacet
  facet normal 0 1 0
    outer loop
      vertex 10.1688 7.5 -8.36079
      vertex 12.044 7.5 -8.88144
      vertex 26 7.5 -13.5
    endloop
  endfacet
  facet normal 0 1 0
    outer loop
      vertex 13.9872 7.5 -8.9868
      vertex 26 7.5 -13.5
      vertex 12.044 7.5 -8.88144
    endloop
  endfacet
  facet normal 0 1 0
    outer loop
      vertex 15.9078 7.5 -8.67195
      vertex 26 7.5 -13.5
      vertex 13.9872 7.5 -8.9868
    endloop
  endfacet
  facet normal 0 1 0
    outer loop
      vertex 19.3265 7.5 -6.85946
      vertex 26 7.5 -13.5
      vertex 17.7157 7.5 -7.95161
    endloop
  endfacet
  facet normal 0 1 0
    outer loop
      vertex 22.5 7.5 2.10942e-15
      vertex 26 7.5 13.5
      vertex 22.2896 7.5 -1.93473
    endloop
  endfacet
  facet normal 0 1 0
    outer loop
      vertex 26 7.5 -13.5
      vertex 19.3265 7.5 -6.85946
      vertex 20.6648 7.5 -5.44657
    endloop
  endfacet
  facet normal 0 1 0
    outer loop
      vertex 26 7.5 -13.5
      vertex 20.6648 7.5 -5.44657
      vertex 21.6682 7.5 -3.779
    endloop
  endfacet
  facet normal 0 1 0
    outer loop
      vertex 26 7.5 -13.5
      vertex 21.6682 7.5 -3.779
      vertex 22.2896 7.5 -1.93473
    endloop
  endfacet
  facet normal 0 1 0
    outer loop
      vertex 26 7.5 -13.5
      vertex 22.2896 7.5 -1.93473
      vertex 26 7.5 13.5
    endloop
  endfacet
  facet normal 0 1 0
    outer loop
      vertex 22.2896 7.5 1.93473
      vertex 26 7.5 13.5
      vertex 22.5 7.5 2.10942e-15
    endloop
  endfacet
  facet normal 0 1 0
    outer loop
      vertex 21.6682 7.5 3.779
      vertex 26 7.5 13.5
      vertex 22.2896 7.5 1.93473
    endloop
  endfacet
  facet normal 0 1 0
    outer loop
      vertex 15.9078 7.5 8.67195
      vertex 26 7.5 13.5
      vertex 17.7157 7.5 7.95161
    endloop
  endfacet
  facet normal 0 1 0
    outer loop
      vertex 21.6682 7.5 3.779
      vertex 20.6648 7.5 5.44657
      vertex 26 7.5 13.5
    endloop
  endfacet
  facet normal 0 1 0
    outer loop
      vertex 20.6648 7.5 5.44657
      vertex 19.3265 7.5 6.85946
      vertex 26 7.5 13.5
    endloop
  endfacet
  facet normal 0 1 0
    outer loop
      vertex 19.3265 7.5 6.85946
      vertex 17.7157 7.5 7.95161
      vertex 26 7.5 13.5
    endloop
  endfacet
  facet normal 0 1 0
    outer loop
      vertex 8.44932 7.5 7.4492
      vertex -5.33182 7.5 3.779
      vertex 10.1688 7.5 8.36079
    endloop
  endfacet
  facet normal 0 1 0
    outer loop
      vertex 6.96604 7.5 6.1893
      vertex -5.33182 7.5 3.779
      vertex 8.44932 7.5 7.4492
    endloop
  endfacet
  facet normal 0 1 0
    outer loop
      vertex 15.9078 7.5 8.67195
      vertex 13.9872 7.5 8.9868
      vertex 26 7.5 13.5
    endloop
  endfacet
  facet normal 0 1 0
    outer loop
      vertex 13.9872 7.5 8.9868
      vertex 12.044 7.5 8.88144
      vertex 26 7.5 13.5
    endloop
  endfacet
  facet normal 0 1 0
    outer loop
      vertex 12.044 7.5 8.88144
      vertex 10.1688 7.5 8.36079
      vertex 26 7.5 13.5
    endloop
  endfacet
  facet normal 0 1 0
    outer loop
      vertex 5.78829 7.5 4.63999
      vertex -5.33182 7.5 3.779
      vertex 6.96604 7.5 6.1893
    endloop
  endfacet
  facet normal 0 1 0
    outer loop
      vertex 4.97112 7.5 2.87371
      vertex -5.33182 7.5 3.779
      vertex 5.78829 7.5 4.63999
    endloop
  endfacet
  facet normal 0 1 0
    outer loop
      vertex 4.55276 7.5 0.973071
      vertex -5.33182 7.5 3.779
      vertex 4.97112 7.5 2.87371
    endloop
  endfacet
  facet normal 0 1 0
    outer loop
      vertex -11.0922 7.5 -8.67195
      vertex 26 7.5 -13.5
      vertex -13.0127 7.5 -8.9868
    endloop
  endfacet
  facet normal 0 1 0
    outer loop
      vertex 17.7157 7.5 -7.95161
      vertex 26 7.5 -13.5
      vertex 15.9078 7.5 -8.67195
    endloop
  endfacet
  facet normal 0 0 1
    outer loop
      vertex -26 7.5 13.5
      vertex -26 -7.5 13.5
      vertex 26 -7.5 13.5
    endloop
  endfacet
  facet normal 0 0 1
    outer loop
      vertex 26 7.5 13.5
      vertex -26 7.5 13.5
      vertex 26 -7.5 13.5
    endloop
  endfacet
  facet normal 1 0 0
    outer loop
      vertex 26 -7.5 13.5
      vertex 26 -7.5 -13.5
      vertex 26 7.5 -13.5
    endloop
  endfacet
  facet normal 1 0 0
    outer loop
      vertex 26 7.5 13.5
      vertex 26 -7.5 13.5
      vertex 26 7.5 -13.5
    endloop
  endfacet
  facet normal 1 0 0
    outer loop
      vertex -23 5.5 -10.5
      vertex -23 5.5 10.5
      vertex -23 -7.5 10.5
    endloop
  endfacet
  facet normal 1 0 0
    outer loop
      vertex -23 -7.5 -10.5
      vertex -23 5.5 -10.5
      vertex -23 -7.5 10.5
    endloop
  endfacet
  facet normal 0 0 1
    outer loop
      vertex 23 -7.5 -10.5
      vertex 23 5.5 -10.5
      vertex -23 5.5 -10.5
    endloop
  endfacet
  facet normal 0 0 1
    outer loop
      vertex -23 -7.5 -10.5
      vertex 23 -7.5 -10.5
      vertex -23 5.5 -10.5
    endloop
  endfacet
  facet normal -1 0 0
    outer loop
      vertex 23 5.5 10.5
      vertex 23 5.5 -10.5
      vertex 23 -7.5 10.5
    endloop
  endfacet
  facet normal -1 0 0
    outer loop
      vertex 23 -7.5 10.5
      vertex 23 5.5 -10.5
      vertex 23 -7.5 -10.5
    endloop
  endfacet
  facet normal 0 0 -1
    outer loop
      vertex 23 5.5 10.5
      vertex 23 -7.5 10.5
      vertex -23 5.5 10.5
    endloop
  endfacet
  facet normal 0 0 -1
    outer loop
      vertex -23 5.5 10.5
      vertex 23 -7.5 10.5
      vertex -23 -7.5 10.5
    endloop
  endfacet
  facet normal 0.976621 -4.7733e-17 -0.21497
    outer loop
      vertex -22.4472 7.5 0.973071
      vertex -22.0289 7.5 2.87371
      vertex -22.0289 5.5 2.87371
    endloop
  endfacet
  facet normal 0.976621 -4.7733e-17 -0.21497
    outer loop
      vertex -22.4472 5.5 0.973071
      vertex -22.4472 7.5 0.973071
      vertex -22.0289 5.5 2.87371
    endloop
  endfacet
  facet normal 1 0 0
    outer loop
      vertex -22.4472 7.5 -0.973071
      vertex -22.4472 7.5 0.973071
      vertex -22.4472 5.5 0.973071
    endloop
  endfacet
  facet normal 1 0 0
    outer loop
      vertex -22.4472 5.5 -0.973071
      vertex -22.4472 7.5 -0.973071
      vertex -22.4472 5.5 0.973071
    endloop
  endfacet
  facet normal 0.907575 -9.32341e-17 -0.419889
    outer loop
      vertex -22.0289 7.5 2.87371
      vertex -21.2117 7.5 4.63999
      vertex -21.2117 5.5 4.63999
    endloop
  endfacet
  facet normal 0.907575 -9.32341e-17 -0.419889
    outer loop
      vertex -22.0289 5.5 2.87371
      vertex -22.0289 7.5 2.87371
      vertex -21.2117 5.5 4.63999
    endloop
  endfacet
  facet normal 0.796093 -1.34376e-16 -0.605175
    outer loop
      vertex -21.2117 7.5 4.63999
      vertex -20.034 7.5 6.1893
      vertex -20.034 5.5 6.1893
    endloop
  endfacet
  facet normal 0.796093 -1.34376e-16 -0.605175
    outer loop
      vertex -21.2117 5.5 4.63999
      vertex -21.2117 7.5 4.63999
      vertex -20.034 5.5 6.1893
    endloop
  endfacet
  facet normal 0.647387 -1.69234e-16 -0.762162
    outer loop
      vertex -18.5507 7.5 7.4492
      vertex -18.5507 5.5 7.4492
      vertex -20.034 7.5 6.1893
    endloop
  endfacet
  facet normal 0.647387 -1.69234e-16 -0.762162
    outer loop
      vertex -20.034 7.5 6.1893
      vertex -18.5507 5.5 7.4492
      vertex -20.034 5.5 6.1893
    endloop
  endfacet
  facet normal 0.468408 -1.96179e-16 -0.883512
    outer loop
      vertex -16.8312 7.5 8.36079
      vertex -16.8312 5.5 8.36079
      vertex -18.5507 7.5 7.4492
    endloop
  endfacet
  facet normal 0.468408 -1.96179e-16 -0.883512
    outer loop
      vertex -18.5507 7.5 7.4492
      vertex -16.8312 5.5 8.36079
      vertex -18.5507 5.5 7.4492
    endloop
  endfacet
  facet normal 0.267529 -2.13951e-16 -0.96355
    outer loop
      vertex -14.956 7.5 8.88144
      vertex -14.956 5.5 8.88144
      vertex -16.8312 7.5 8.36079
    endloop
  endfacet
  facet normal 0.267529 -2.13951e-16 -0.96355
    outer loop
      vertex -16.8312 7.5 8.36079
      vertex -14.956 5.5 8.88144
      vertex -16.8312 5.5 8.36079
    endloop
  endfacet
  facet normal 0.0541389 -2.21719e-16 -0.998533
    outer loop
      vertex -13.0127 7.5 8.9868
      vertex -13.0127 5.5 8.9868
      vertex -14.956 7.5 8.88144
    endloop
  endfacet
  facet normal 0.0541389 -2.21719e-16 -0.998533
    outer loop
      vertex -14.956 7.5 8.88144
      vertex -13.0127 5.5 8.9868
      vertex -14.956 5.5 8.88144
    endloop
  endfacet
  facet normal -0.161782 -2.1912e-16 -0.986827
    outer loop
      vertex -11.0922 7.5 8.67195
      vertex -11.0922 5.5 8.67195
      vertex -13.0127 7.5 8.9868
    endloop
  endfacet
  facet normal -0.161782 -2.1912e-16 -0.986827
    outer loop
      vertex -13.0127 7.5 8.9868
      vertex -11.0922 5.5 8.67195
      vertex -13.0127 5.5 8.9868
    endloop
  endfacet
  facet normal -0.370138 -2.06274e-16 -0.928977
    outer loop
      vertex -9.28432 7.5 7.95161
      vertex -9.28432 5.5 7.95161
      vertex -11.0922 7.5 8.67195
    endloop
  endfacet
  facet normal -0.370138 -2.06274e-16 -0.928977
    outer loop
      vertex -11.0922 7.5 8.67195
      vertex -9.28432 5.5 7.95161
      vertex -11.0922 5.5 8.67195
    endloop
  endfacet
  facet normal -0.561187 -1.83784e-16 -0.827689
    outer loop
      vertex -7.67352 7.5 6.85946
      vertex -7.67352 5.5 6.85946
      vertex -9.28432 7.5 7.95161
    endloop
  endfacet
  facet normal -0.561187 -1.83784e-16 -0.827689
    outer loop
      vertex -9.28432 7.5 7.95161
      vertex -7.67352 5.5 6.85946
      vertex -9.28432 5.5 7.95161
    endloop
  endfacet
  facet normal -0.725995 -1.527e-16 -0.6877
    outer loop
      vertex -6.33516 7.5 5.44657
      vertex -6.33516 5.5 5.44657
      vertex -7.67352 7.5 6.85946
    endloop
  endfacet
  facet normal -0.725995 -1.527e-16 -0.6877
    outer loop
      vertex -7.67352 7.5 6.85946
      vertex -6.33516 5.5 5.44657
      vertex -7.67352 5.5 6.85946
    endloop
  endfacet
  facet normal -0.856857 -1.14476e-16 -0.515554
    outer loop
      vertex -5.33182 7.5 3.779
      vertex -5.33182 5.5 3.779
      vertex -6.33516 7.5 5.44657
    endloop
  endfacet
  facet normal -0.856857 -1.14476e-16 -0.515554
    outer loop
      vertex -6.33516 7.5 5.44657
      vertex -5.33182 5.5 3.779
      vertex -6.33516 5.5 5.44657
    endloop
  endfacet
  facet normal -0.947653 -7.08992e-17 -0.319301
    outer loop
      vertex -4.71042 7.5 1.93473
      vertex -4.71042 5.5 1.93473
      vertex -5.33182 7.5 3.779
    endloop
  endfacet
  facet normal -0.947653 -7.08992e-17 -0.319301
    outer loop
      vertex -5.33182 7.5 3.779
      vertex -4.71042 5.5 1.93473
      vertex -5.33182 5.5 3.779
    endloop
  endfacet
  facet normal -0.994138 -2.40072e-17 -0.108119
    outer loop
      vertex -4.5 7.5 2.10942e-15
      vertex -4.5 5.5 2.55351e-15
      vertex -4.71042 7.5 1.93473
    endloop
  endfacet
  facet normal -0.994138 -2.40072e-17 -0.108119
    outer loop
      vertex -4.71042 7.5 1.93473
      vertex -4.5 5.5 2.55351e-15
      vertex -4.71042 5.5 1.93473
    endloop
  endfacet
  facet normal -0.994138 2.40072e-17 0.108119
    outer loop
      vertex -4.5 7.5 2.10942e-15
      vertex -4.71042 7.5 -1.93473
      vertex -4.5 5.5 2.55351e-15
    endloop
  endfacet
  facet normal -0.994138 2.40072e-17 0.108119
    outer loop
      vertex -4.5 5.5 2.55351e-15
      vertex -4.71042 7.5 -1.93473
      vertex -4.71042 5.5 -1.93473
    endloop
  endfacet
  facet normal -0.947653 7.08992e-17 0.319301
    outer loop
      vertex -4.71042 7.5 -1.93473
      vertex -5.33182 7.5 -3.779
      vertex -4.71042 5.5 -1.93473
    endloop
  endfacet
  facet normal -0.947653 7.08992e-17 0.319301
    outer loop
      vertex -4.71042 5.5 -1.93473
      vertex -5.33182 7.5 -3.779
      vertex -5.33182 5.5 -3.779
    endloop
  endfacet
  facet normal -0.856857 1.14476e-16 0.515554
    outer loop
      vertex -5.33182 7.5 -3.779
      vertex -6.33516 7.5 -5.44657
      vertex -5.33182 5.5 -3.779
    endloop
  endfacet
  facet normal -0.856857 1.14476e-16 0.515554
    outer loop
      vertex -5.33182 5.5 -3.779
      vertex -6.33516 7.5 -5.44657
      vertex -6.33516 5.5 -5.44657
    endloop
  endfacet
  facet normal -0.725995 1.527e-16 0.6877
    outer loop
      vertex -6.33516 7.5 -5.44657
      vertex -7.67352 7.5 -6.85946
      vertex -6.33516 5.5 -5.44657
    endloop
  endfacet
  facet normal -0.725995 1.527e-16 0.6877
    outer loop
      vertex -6.33516 5.5 -5.44657
      vertex -7.67352 7.5 -6.85946
      vertex -7.67352 5.5 -6.85946
    endloop
  endfacet
  facet normal -0.561187 1.83784e-16 0.827689
    outer loop
      vertex -7.67352 5.5 -6.85946
      vertex -7.67352 7.5 -6.85946
      vertex -9.28432 7.5 -7.95161
    endloop
  endfacet
  facet normal -0.561187 1.83784e-16 0.827689
    outer loop
      vertex -9.28432 5.5 -7.95161
      vertex -7.67352 5.5 -6.85946
      vertex -9.28432 7.5 -7.95161
    endloop
  endfacet
  facet normal -0.370138 2.06274e-16 0.928977
    outer loop
      vertex -9.28432 5.5 -7.95161
      vertex -9.28432 7.5 -7.95161
      vertex -11.0922 7.5 -8.67195
    endloop
  endfacet
  facet normal -0.370138 2.06274e-16 0.928977
    outer loop
      vertex -11.0922 5.5 -8.67195
      vertex -9.28432 5.5 -7.95161
      vertex -11.0922 7.5 -8.67195
    endloop
  endfacet
  facet normal -0.161782 2.1912e-16 0.986827
    outer loop
      vertex -11.0922 5.5 -8.67195
      vertex -11.0922 7.5 -8.67195
      vertex -13.0127 7.5 -8.9868
    endloop
  endfacet
  facet normal -0.161782 2.1912e-16 0.986827
    outer loop
      vertex -13.0127 5.5 -8.9868
      vertex -11.0922 5.5 -8.67195
      vertex -13.0127 7.5 -8.9868
    endloop
  endfacet
  facet normal 0.0541389 2.21719e-16 0.998533
    outer loop
      vertex -13.0127 5.5 -8.9868
      vertex -13.0127 7.5 -8.9868
      vertex -14.956 7.5 -8.88144
    endloop
  endfacet
  facet normal 0.0541389 2.21719e-16 0.998533
    outer loop
      vertex -14.956 5.5 -8.88144
      vertex -13.0127 5.5 -8.9868
      vertex -14.956 7.5 -8.88144
    endloop
  endfacet
  facet normal 0.267529 2.13951e-16 0.96355
    outer loop
      vertex -14.956 5.5 -8.88144
      vertex -14.956 7.5 -8.88144
      vertex -16.8312 7.5 -8.36079
    endloop
  endfacet
  facet normal 0.267529 2.13951e-16 0.96355
    outer loop
      vertex -16.8312 5.5 -8.36079
      vertex -14.956 5.5 -8.88144
      vertex -16.8312 7.5 -8.36079
    endloop
  endfacet
  facet normal 0.468408 1.96179e-16 0.883512
    outer loop
      vertex -16.8312 5.5 -8.36079
      vertex -16.8312 7.5 -8.36079
      vertex -18.5507 7.5 -7.4492
    endloop
  endfacet
  facet normal 0.468408 1.96179e-16 0.883512
    outer loop
      vertex -18.5507 5.5 -7.4492
      vertex -16.8312 5.5 -8.36079
      vertex -18.5507 7.5 -7.4492
    endloop
  endfacet
  facet normal 0.647387 1.69234e-16 0.762162
    outer loop
      vertex -18.5507 5.5 -7.4492
      vertex -18.5507 7.5 -7.4492
      vertex -20.034 7.5 -6.18929
    endloop
  endfacet
  facet normal 0.647387 1.69234e-16 0.762162
    outer loop
      vertex -20.034 5.5 -6.18929
      vertex -18.5507 5.5 -7.4492
      vertex -20.034 7.5 -6.18929
    endloop
  endfacet
  facet normal 0.796093 1.34376e-16 0.605175
    outer loop
      vertex -20.034 5.5 -6.18929
      vertex -20.034 7.5 -6.18929
      vertex -21.2117 7.5 -4.63998
    endloop
  endfacet
  facet normal 0.796093 1.34376e-16 0.605175
    outer loop
      vertex -21.2117 5.5 -4.63998
      vertex -20.034 5.5 -6.18929
      vertex -21.2117 7.5 -4.63998
    endloop
  endfacet
  facet normal 0.907575 9.32341e-17 0.419889
    outer loop
      vertex -21.2117 5.5 -4.63998
      vertex -21.2117 7.5 -4.63998
      vertex -22.0289 7.5 -2.87371
    endloop
  endfacet
  facet normal 0.907575 9.32341e-17 0.419889
    outer loop
      vertex -22.0289 5.5 -2.87371
      vertex -21.2117 5.5 -4.63998
      vertex -22.0289 7.5 -2.87371
    endloop
  endfacet
  facet normal 0.976621 4.7733e-17 0.21497
    outer loop
      vertex -22.0289 5.5 -2.87371
      vertex -22.0289 7.5 -2.87371
      vertex -22.4472 7.5 -0.973071
    endloop
  endfacet
  facet normal 0.976621 4.7733e-17 0.21497
    outer loop
      vertex -22.4472 5.5 -0.973071
      vertex -22.0289 5.5 -2.87371
      vertex -22.4472 7.5 -0.973071
    endloop
  endfacet
  facet normal 0.976621 -4.7733e-17 -0.21497
    outer loop
      vertex 4.55276 7.5 0.973071
      vertex 4.97112 7.5 2.87371
      vertex 4.97112 5.5 2.87371
    endloop
  endfacet
  facet normal 0.976621 -4.7733e-17 -0.21497
    outer loop
      vertex 4.55276 5.5 0.973071
      vertex 4.55276 7.5 0.973071
      vertex 4.97112 5.5 2.87371
    endloop
  endfacet
  facet normal 1 0 0
    outer loop
      vertex 4.55276 7.5 -0.973071
      vertex 4.55276 7.5 0.973071
      vertex 4.55276 5.5 0.973071
    endloop
  endfacet
  facet normal 1 0 0
    outer loop
      vertex 4.55276 5.5 -0.973071
      vertex 4.55276 7.5 -0.973071
      vertex 4.55276 5.5 0.973071
    endloop
  endfacet
  facet normal 0.907575 -9.32341e-17 -0.419889
    outer loop
      vertex 4.97112 7.5 2.87371
      vertex 5.78829 7.5 4.63999
      vertex 5.78829 5.5 4.63999
    endloop
  endfacet
  facet normal 0.907575 -9.32341e-17 -0.419889
    outer loop
      vertex 4.97112 5.5 2.87371
      vertex 4.97112 7.5 2.87371
      vertex 5.78829 5.5 4.63999
    endloop
  endfacet
  facet normal 0.796093 -1.34376e-16 -0.605175
    outer loop
      vertex 5.78829 7.5 4.63999
      vertex 6.96604 7.5 6.1893
      vertex 6.96604 5.5 6.1893
    endloop
  endfacet
  facet normal 0.796093 -1.34376e-16 -0.605175
    outer loop
      vertex 5.78829 5.5 4.63999
      vertex 5.78829 7.5 4.63999
      vertex 6.96604 5.5 6.1893
    endloop
  endfacet
  facet normal 0.647387 -1.69234e-16 -0.762162
    outer loop
      vertex 8.44932 7.5 7.4492
      vertex 8.44932 5.5 7.4492
      vertex 6.96604 7.5 6.1893
    endloop
  endfacet
  facet normal 0.647387 -1.69234e-16 -0.762162
    outer loop
      vertex 6.96604 7.5 6.1893
      vertex 8.44932 5.5 7.4492
      vertex 6.96604 5.5 6.1893
    endloop
  endfacet
  facet normal 0.468408 -1.96179e-16 -0.883512
    outer loop
      vertex 10.1688 7.5 8.36079
      vertex 10.1688 5.5 8.36079
      vertex 8.44932 7.5 7.4492
    endloop
  endfacet
  facet normal 0.468408 -1.96179e-16 -0.883512
    outer loop
      vertex 8.44932 7.5 7.4492
      vertex 10.1688 5.5 8.36079
      vertex 8.44932 5.5 7.4492
    endloop
  endfacet
  facet normal 0.267529 -2.13951e-16 -0.96355
    outer loop
      vertex 12.044 7.5 8.88144
      vertex 12.044 5.5 8.88144
      vertex 10.1688 7.5 8.36079
    endloop
  endfacet
  facet normal 0.267529 -2.13951e-16 -0.96355
    outer loop
      vertex 10.1688 7.5 8.36079
      vertex 12.044 5.5 8.88144
      vertex 10.1688 5.5 8.36079
    endloop
  endfacet
  facet normal 0.0541389 -2.21719e-16 -0.998533
    outer loop
      vertex 13.9872 7.5 8.9868
      vertex 13.9872 5.5 8.9868
      vertex 12.044 7.5 8.88144
    endloop
  endfacet
  facet normal 0.0541389 -2.21719e-16 -0.998533
    outer loop
      vertex 12.044 7.5 8.88144
      vertex 13.9872 5.5 8.9868
      vertex 12.044 5.5 8.88144
    endloop
  endfacet
  facet normal -0.161782 -2.1912e-16 -0.986827
    outer loop
      vertex 15.9078 7.5 8.67195
      vertex 15.9078 5.5 8.67195
      vertex 13.9872 7.5 8.9868
    endloop
  endfacet
  facet normal -0.161782 -2.1912e-16 -0.986827
    outer loop
      vertex 13.9872 7.5 8.9868
      vertex 15.9078 5.5 8.67195
      vertex 13.9872 5.5 8.9868
    endloop
  endfacet
  facet normal -0.370138 -2.06274e-16 -0.928977
    outer loop
      vertex 17.7157 7.5 7.95161
      vertex 17.7157 5.5 7.95161
      vertex 15.9078 7.5 8.67195
    endloop
  endfacet
  facet normal -0.370138 -2.06274e-16 -0.928977
    outer loop
      vertex 15.9078 7.5 8.67195
      vertex 17.7157 5.5 7.95161
      vertex 15.9078 5.5 8.67195
    endloop
  endfacet
  facet normal -0.561187 -1.83784e-16 -0.827689
    outer loop
      vertex 19.3265 7.5 6.85946
      vertex 19.3265 5.5 6.85946
      vertex 17.7157 7.5 7.95161
    endloop
  endfacet
  facet normal -0.561187 -1.83784e-16 -0.827689
    outer loop
      vertex 17.7157 7.5 7.95161
      vertex 19.3265 5.5 6.85946
      vertex 17.7157 5.5 7.95161
    endloop
  endfacet
  facet normal -0.725995 -1.527e-16 -0.6877
    outer loop
      vertex 20.6648 7.5 5.44657
      vertex 20.6648 5.5 5.44657
      vertex 19.3265 7.5 6.85946
    endloop
  endfacet
  facet normal -0.725995 -1.527e-16 -0.6877
    outer loop
      vertex 19.3265 7.5 6.85946
      vertex 20.6648 5.5 5.44657
      vertex 19.3265 5.5 6.85946
    endloop
  endfacet
  facet normal -0.856857 -1.14476e-16 -0.515554
    outer loop
      vertex 21.6682 7.5 3.779
      vertex 21.6682 5.5 3.779
      vertex 20.6648 7.5 5.44657
    endloop
  endfacet
  facet normal -0.856857 -1.14476e-16 -0.515554
    outer loop
      vertex 20.6648 7.5 5.44657
      vertex 21.6682 5.5 3.779
      vertex 20.6648 5.5 5.44657
    endloop
  endfacet
  facet normal -0.947653 -7.08992e-17 -0.319301
    outer loop
      vertex 22.2896 7.5 1.93473
      vertex 22.2896 5.5 1.93473
      vertex 21.6682 7.5 3.779
    endloop
  endfacet
  facet normal -0.947653 -7.08992e-17 -0.319301
    outer loop
      vertex 21.6682 7.5 3.779
      vertex 22.2896 5.5 1.93473
      vertex 21.6682 5.5 3.779
    endloop
  endfacet
  facet normal -0.994138 -2.40072e-17 -0.108119
    outer loop
      vertex 22.5 7.5 2.10942e-15
      vertex 22.5 5.5 2.55351e-15
      vertex 22.2896 7.5 1.93473
    endloop
  endfacet
  facet normal -0.994138 -2.40072e-17 -0.108119
    outer loop
      vertex 22.2896 7.5 1.93473
      vertex 22.5 5.5 2.55351e-15
      vertex 22.2896 5.5 1.93473
    endloop
  endfacet
  facet normal -0.994138 2.40072e-17 0.108119
    outer loop
      vertex 22.5 7.5 2.10942e-15
      vertex 22.2896 7.5 -1.93473
      vertex 22.5 5.5 2.55351e-15
    endloop
  endfacet
  facet normal -0.994138 2.40072e-17 0.108119
    outer loop
      vertex 22.5 5.5 2.55351e-15
      vertex 22.2896 7.5 -1.93473
      vertex 22.2896 5.5 -1.93473
    endloop
  endfacet
  facet normal -0.947653 7.08992e-17 0.319301
    outer loop
      vertex 22.2896 7.5 -1.93473
      vertex 21.6682 7.5 -3.779
      vertex 22.2896 5.5 -1.93473
    endloop
  endfacet
  facet normal -0.947653 7.08992e-17 0.319301
    outer loop
      vertex 22.2896 5.5 -1.93473
      vertex 21.6682 7.5 -3.779
      vertex 21.6682 5.5 -3.779
    endloop
  endfacet
  facet normal -0.856857 1.14476e-16 0.515554
    outer loop
      vertex 21.6682 7.5 -3.779
      vertex 20.6648 7.5 -5.44657
      vertex 21.6682 5.5 -3.779
    endloop
  endfacet
  facet normal -0.856857 1.14476e-16 0.515554
    outer loop
      vertex 21.6682 5.5 -3.779
      vertex 20.6648 7.5 -5.44657
      vertex 20.6648 5.5 -5.44657
    endloop
  endfacet
  facet normal -0.725995 1.527e-16 0.6877
    outer loop
      vertex 20.6648 7.5 -5.44657
      vertex 19.3265 7.5 -6.85946
      vertex 20.6648 5.5 -5.44657
    endloop
  endfacet
  facet normal -0.725995 1.527e-16 0.6877
    outer loop
      vertex 20.6648 5.5 -5.44657
      vertex 19.3265 7.5 -6.85946
      vertex 19.3265 5.5 -6.85946
    endloop
  endfacet
  facet normal -0.561187 1.83784e-16 0.827689
    outer loop
      vertex 19.3265 5.5 -6.85946
      vertex 19.3265 7.5 -6.85946
      vertex 17.7157 7.5 -7.95161
    endloop
  endfacet
  facet normal -0.561187 1.83784e-16 0.827689
    outer loop
      vertex 17.7157 5.5 -7.95161
      vertex 19.3265 5.5 -6.85946
      vertex 17.7157 7.5 -7.95161
    endloop
  endfacet
  facet normal -0.370138 2.06274e-16 0.928977
    outer loop
      vertex 17.7157 5.5 -7.95161
      vertex 17.7157 7.5 -7.95161
      vertex 15.9078 7.5 -8.67195
    endloop
  endfacet
  facet normal -0.370138 2.06274e-16 0.928977
    outer loop
      vertex 15.9078 5.5 -8.67195
      vertex 17.7157 5.5 -7.95161
      vertex 15.9078 7.5 -8.67195
    endloop
  endfacet
  facet normal -0.161782 2.1912e-16 0.986827
    outer loop
      vertex 15.9078 5.5 -8.67195
      vertex 15.9078 7.5 -8.67195
      vertex 13.9872 7.5 -8.9868
    endloop
  endfacet
  facet normal -0.161782 2.1912e-16 0.986827
    outer loop
      vertex 13.9872 5.5 -8.9868
      vertex 15.9078 5.5 -8.67195
      vertex 13.9872 7.5 -8.9868
    endloop
  endfacet
  facet normal 0.0541389 2.21719e-16 0.998533
    outer loop
      vertex 13.9872 5.5 -8.9868
      vertex 13.9872 7.5 -8.9868
      vertex 12.044 7.5 -8.88144
    endloop
  endfacet
  facet normal 0.0541389 2.21719e-16 0.998533
    outer loop
      vertex 12.044 5.5 -8.88144
      vertex 13.9872 5.5 -8.9868
      vertex 12.044 7.5 -8.88144
    endloop
  endfacet
  facet normal 0.267529 2.13951e-16 0.96355
    outer loop
      vertex 12.044 5.5 -8.88144
      vertex 12.044 7.5 -8.88144
      vertex 10.1688 7.5 -8.36079
    endloop
  endfacet
  facet normal 0.267529 2.13951e-16 0.96355
    outer loop
      vertex 10.1688 5.5 -8.36079
      vertex 12.044 5.5 -8.88144
      vertex 10.1688 7.5 -8.36079
    endloop
  endfacet
  facet normal 0.468408 1.96179e-16 0.883512
    outer loop
      vertex 10.1688 5.5 -8.36079
      vertex 10.1688 7.5 -8.36079
      vertex 8.44932 7.5 -7.4492
    endloop
  endfacet
  facet normal 0.468408 1.96179e-16 0.883512
    outer loop
      vertex 8.44932 5.5 -7.4492
      vertex 10.1688 5.5 -8.36079
      vertex 8.44932 7.5 -7.4492
    endloop
  endfacet
  facet normal 0.647387 1.69234e-16 0.762162
    outer loop
      vertex 8.44932 5.5 -7.4492
      vertex 8.44932 7.5 -7.4492
      vertex 6.96604 7.5 -6.18929
    endloop
  endfacet
  facet normal 0.647387 1.69234e-16 0.762162
    outer loop
      vertex 6.96604 5.5 -6.18929
      vertex 8.44932 5.5 -7.4492
      vertex 6.96604 7.5 -6.18929
    endloop
  endfacet
  facet normal 0.796093 1.34376e-16 0.605175
    outer loop
      vertex 6.96604 5.5 -6.18929
      vertex 6.96604 7.5 -6.18929
      vertex 5.78829 7.5 -4.63998
    endloop
  endfacet
  facet normal 0.796093 1.34376e-16 0.605175
    outer loop
      vertex 5.78829 5.5 -4.63998
      vertex 6.96604 5.5 -6.18929
      vertex 5.78829 7.5 -4.63998
    endloop
  endfacet
  facet normal 0.907575 9.32341e-17 0.419889
    outer loop
      vertex 5.78829 5.5 -4.63998
      vertex 5.78829 7.5 -4.63998
      vertex 4.97112 7.5 -2.87371
    endloop
  endfacet
  facet normal 0.907575 9.32341e-17 0.419889
    outer loop
      vertex 4.97112 5.5 -2.87371
      vertex 5.78829 5.5 -4.63998
      vertex 4.97112 7.5 -2.87371
    endloop
  endfacet
  facet normal 0.976621 4.7733e-17 0.21497
    outer loop
      vertex 4.97112 5.5 -2.87371
      vertex 4.97112 7.5 -2.87371
      vertex 4.55276 7.5 -0.973071
    endloop
  endfacet
  facet normal 0.976621 4.7733e-17 0.21497
    outer loop
      vertex 4.55276 5.5 -0.973071
      vertex 4.97112 5.5 -2.87371
      vertex 4.55276 7.5 -0.973071
    endloop
  endfacet
  facet normal 0 -1 0
    outer loop
      vertex -13.0127 5.5 8.9868
      vertex 23 5.5 10.5
      vertex -23 5.5 10.5
    endloop
  endfacet
  facet normal 0 -1 0
    outer loop
      vertex -13.0127 5.5 8.9868
      vertex -11.0922 5.5 8.67195
      vertex 23 5.5 10.5
    endloop
  endfacet
  facet normal 0 -1 0
    outer loop
      vertex -23 5.5 -10.5
      vertex -22.4472 5.5 0.973071
      vertex -23 5.5 10.5
    endloop
  endfacet
  facet normal 0 -1 0
    outer loop
      vertex -22.4472 5.5 0.973071
      vertex -22.0289 5.5 2.87371
      vertex -23 5.5 10.5
    endloop
  endfacet
  facet normal 0 -1 0
    outer loop
      vertex 17.7157 5.5 -7.95161
      vertex 15.9078 5.5 -8.67195
      vertex 23 5.5 -10.5
    endloop
  endfacet
  facet normal 0 -1 0
    outer loop
      vertex -22.0289 5.5 2.87371
      vertex -21.2117 5.5 4.63999
      vertex -23 5.5 10.5
    endloop
  endfacet
  facet normal 0 -1 0
    outer loop
      vertex -21.2117 5.5 4.63999
      vertex -20.034 5.5 6.1893
      vertex -23 5.5 10.5
    endloop
  endfacet
  facet normal 0 -1 0
    outer loop
      vertex -20.034 5.5 6.1893
      vertex -18.5507 5.5 7.4492
      vertex -23 5.5 10.5
    endloop
  endfacet
  facet normal 0 -1 0
    outer loop
      vertex 5.78829 5.5 -4.63998
      vertex 4.97112 5.5 -2.87371
      vertex -4.5 5.5 2.55351e-15
    endloop
  endfacet
  facet normal 0 -1 0
    outer loop
      vertex -16.8312 5.5 8.36079
      vertex -14.956 5.5 8.88144
      vertex -23 5.5 10.5
    endloop
  endfacet
  facet normal 0 -1 0
    outer loop
      vertex -14.956 5.5 8.88144
      vertex -13.0127 5.5 8.9868
      vertex -23 5.5 10.5
    endloop
  endfacet
  facet normal 0 -1 0
    outer loop
      vertex -11.0922 5.5 8.67195
      vertex -9.28432 5.5 7.95161
      vertex 23 5.5 10.5
    endloop
  endfacet
  facet normal 0 -1 0
    outer loop
      vertex 12.044 5.5 8.88144
      vertex 23 5.5 10.5
      vertex -9.28432 5.5 7.95161
    endloop
  endfacet
  facet normal 0 -1 0
    outer loop
      vertex 12.044 5.5 8.88144
      vertex 13.9872 5.5 8.9868
      vertex 23 5.5 10.5
    endloop
  endfacet
  facet normal 0 -1 0
    outer loop
      vertex 4.55276 5.5 -0.973071
      vertex -6.33516 5.5 5.44657
      vertex -5.33182 5.5 3.779
    endloop
  endfacet
  facet normal 0 -1 0
    outer loop
      vertex 4.97112 5.5 -2.87371
      vertex 4.55276 5.5 -0.973071
      vertex -5.33182 5.5 3.779
    endloop
  endfacet
  facet normal 0 -1 0
    outer loop
      vertex -16.8312 5.5 -8.36079
      vertex -18.5507 5.5 -7.4492
      vertex -23 5.5 -10.5
    endloop
  endfacet
  facet normal 0 -1 0
    outer loop
      vertex -9.28432 5.5 -7.95161
      vertex 23 5.5 -10.5
      vertex -7.67352 5.5 -6.85946
    endloop
  endfacet
  facet normal 0 -1 0
    outer loop
      vertex -11.0922 5.5 -8.67195
      vertex 23 5.5 -10.5
      vertex -9.28432 5.5 -7.95161
    endloop
  endfacet
  facet normal 0 -1 0
    outer loop
      vertex -13.0127 5.5 -8.9868
      vertex 23 5.5 -10.5
      vertex -11.0922 5.5 -8.67195
    endloop
  endfacet
  facet normal 0 -1 0
    outer loop
      vertex -14.956 5.5 -8.88144
      vertex -16.8312 5.5 -8.36079
      vertex -23 5.5 -10.5
    endloop
  endfacet
  facet normal 0 -1 0
    outer loop
      vertex -23 5.5 -10.5
      vertex 23 5.5 -10.5
      vertex -13.0127 5.5 -8.9868
    endloop
  endfacet
  facet normal 0 -1 0
    outer loop
      vertex 4.55276 5.5 -0.973071
      vertex -9.28432 5.5 7.95161
      vertex -7.67352 5.5 6.85946
    endloop
  endfacet
  facet normal 0 -1 0
    outer loop
      vertex 4.55276 5.5 -0.973071
      vertex -7.67352 5.5 6.85946
      vertex -6.33516 5.5 5.44657
    endloop
  endfacet
  facet normal 0 -1 0
    outer loop
      vertex -23 5.5 -10.5
      vertex -18.5507 5.5 -7.4492
      vertex -20.034 5.5 -6.18929
    endloop
  endfacet
  facet normal 0 -1 0
    outer loop
      vertex -23 5.5 -10.5
      vertex -20.034 5.5 -6.18929
      vertex -21.2117 5.5 -4.63998
    endloop
  endfacet
  facet normal 0 -1 0
    outer loop
      vertex -23 5.5 -10.5
      vertex -21.2117 5.5 -4.63998
      vertex -22.0289 5.5 -2.87371
    endloop
  endfacet
  facet normal 0 -1 0
    outer loop
      vertex -23 5.5 -10.5
      vertex -22.4472 5.5 -0.973071
      vertex -22.4472 5.5 0.973071
    endloop
  endfacet
  facet normal 0 -1 0
    outer loop
      vertex -23 5.5 -10.5
      vertex -22.0289 5.5 -2.87371
      vertex -22.4472 5.5 -0.973071
    endloop
  endfacet
  facet normal 0 -1 0
    outer loop
      vertex 4.55276 5.5 0.973071
      vertex 4.97112 5.5 2.87371
      vertex -9.28432 5.5 7.95161
    endloop
  endfacet
  facet normal 0 -1 0
    outer loop
      vertex 4.97112 5.5 2.87371
      vertex 5.78829 5.5 4.63999
      vertex -9.28432 5.5 7.95161
    endloop
  endfacet
  facet normal 0 -1 0
    outer loop
      vertex 17.7157 5.5 7.95161
      vertex 19.3265 5.5 6.85946
      vertex 23 5.5 10.5
    endloop
  endfacet
  facet normal 0 -1 0
    outer loop
      vertex 5.78829 5.5 4.63999
      vertex 6.96604 5.5 6.1893
      vertex -9.28432 5.5 7.95161
    endloop
  endfacet
  facet normal 0 -1 0
    outer loop
      vertex 22.2896 5.5 -1.93473
      vertex 21.6682 5.5 -3.779
      vertex 23 5.5 -10.5
    endloop
  endfacet
  facet normal 0 -1 0
    outer loop
      vertex 6.96604 5.5 6.1893
      vertex 8.44932 5.5 7.4492
      vertex -9.28432 5.5 7.95161
    endloop
  endfacet
  facet normal 0 -1 0
    outer loop
      vertex 8.44932 5.5 7.4492
      vertex 10.1688 5.5 8.36079
      vertex -9.28432 5.5 7.95161
    endloop
  endfacet
  facet normal 0 -1 0
    outer loop
      vertex 10.1688 5.5 8.36079
      vertex 12.044 5.5 8.88144
      vertex -9.28432 5.5 7.95161
    endloop
  endfacet
  facet normal 0 -1 0
    outer loop
      vertex 13.9872 5.5 8.9868
      vertex 15.9078 5.5 8.67195
      vertex 23 5.5 10.5
    endloop
  endfacet
  facet normal 0 -1 0
    outer loop
      vertex 19.3265 5.5 -6.85946
      vertex 17.7157 5.5 -7.95161
      vertex 23 5.5 -10.5
    endloop
  endfacet
  facet normal 0 -1 0
    outer loop
      vertex 22.5 5.5 2.55351e-15
      vertex 22.2896 5.5 -1.93473
      vertex 23 5.5 -10.5
    endloop
  endfacet
  facet normal 0 -1 0
    outer loop
      vertex 20.6648 5.5 5.44657
      vertex 23 5.5 10.5
      vertex 19.3265 5.5 6.85946
    endloop
  endfacet
  facet normal 0 -1 0
    outer loop
      vertex 21.6682 5.5 3.779
      vertex 23 5.5 10.5
      vertex 20.6648 5.5 5.44657
    endloop
  endfacet
  facet normal 0 -1 0
    outer loop
      vertex 21.6682 5.5 -3.779
      vertex 20.6648 5.5 -5.44657
      vertex 23 5.5 -10.5
    endloop
  endfacet
  facet normal 0 -1 0
    outer loop
      vertex 22.2896 5.5 1.93473
      vertex 23 5.5 10.5
      vertex 21.6682 5.5 3.779
    endloop
  endfacet
  facet normal 0 -1 0
    outer loop
      vertex 22.5 5.5 2.55351e-15
      vertex 23 5.5 10.5
      vertex 22.2896 5.5 1.93473
    endloop
  endfacet
  facet normal 0 -1 0
    outer loop
      vertex 23 5.5 -10.5
      vertex 23 5.5 10.5
      vertex 22.5 5.5 2.55351e-15
    endloop
  endfacet
  facet normal 0 -1 0
    outer loop
      vertex 23 5.5 -10.5
      vertex 20.6648 5.5 -5.44657
      vertex 19.3265 5.5 -6.85946
    endloop
  endfacet
  facet normal 0 -1 0
    outer loop
      vertex 8.44932 5.5 -7.4492
      vertex 6.96604 5.5 -6.18929
      vertex -5.33182 5.5 -3.779
    endloop
  endfacet
  facet normal 0 -1 0
    outer loop
      vertex 12.044 5.5 -8.88144
      vertex 23 5.5 -10.5
      vertex 13.9872 5.5 -8.9868
    endloop
  endfacet
  facet normal 0 -1 0
    outer loop
      vertex 10.1688 5.5 -8.36079
      vertex 8.44932 5.5 -7.4492
      vertex -6.33516 5.5 -5.44657
    endloop
  endfacet
  facet normal 0 -1 0
    outer loop
      vertex -7.67352 5.5 -6.85946
      vertex 23 5.5 -10.5
      vertex 12.044 5.5 -8.88144
    endloop
  endfacet
  facet normal 0 -1 0
    outer loop
      vertex -7.67352 5.5 -6.85946
      vertex 10.1688 5.5 -8.36079
      vertex -6.33516 5.5 -5.44657
    endloop
  endfacet
  facet normal 0 -1 0
    outer loop
      vertex -6.33516 5.5 -5.44657
      vertex 8.44932 5.5 -7.4492
      vertex -5.33182 5.5 -3.779
    endloop
  endfacet
  facet normal 0 -1 0
    outer loop
      vertex 12.044 5.5 -8.88144
      vertex 10.1688 5.5 -8.36079
      vertex -7.67352 5.5 -6.85946
    endloop
  endfacet
  facet normal 0 -1 0
    outer loop
      vertex 4.55276 5.5 -0.973071
      vertex 4.55276 5.5 0.973071
      vertex -9.28432 5.5 7.95161
    endloop
  endfacet
  facet normal 0 -1 0
    outer loop
      vertex -13.0127 5.5 -8.9868
      vertex -14.956 5.5 -8.88144
      vertex -23 5.5 -10.5
    endloop
  endfacet
  facet normal 0 -1 0
    outer loop
      vertex 6.96604 5.5 -6.18929
      vertex 5.78829 5.5 -4.63998
      vertex -4.71042 5.5 -1.93473
    endloop
  endfacet
  facet normal 0 -1 0
    outer loop
      vertex -4.5 5.5 2.55351e-15
      vertex -4.71042 5.5 -1.93473
      vertex 5.78829 5.5 -4.63998
    endloop
  endfacet
  facet normal 0 -1 0
    outer loop
      vertex 4.97112 5.5 -2.87371
      vertex -5.33182 5.5 3.779
      vertex -4.71042 5.5 1.93473
    endloop
  endfacet
  facet normal 0 -1 0
    outer loop
      vertex 15.9078 5.5 8.67195
      vertex 17.7157 5.5 7.95161
      vertex 23 5.5 10.5
    endloop
  endfacet
  facet normal 0 -1 0
    outer loop
      vertex -18.5507 5.5 7.4492
      vertex -16.8312 5.5 8.36079
      vertex -23 5.5 10.5
    endloop
  endfacet
  facet normal 0 -1 0
    outer loop
      vertex 15.9078 5.5 -8.67195
      vertex 13.9872 5.5 -8.9868
      vertex 23 5.5 -10.5
    endloop
  endfacet
  facet normal 0 -1 0
    outer loop
      vertex -4.71042 5.5 1.93473
      vertex -4.5 5.5 2.55351e-15
      vertex 4.97112 5.5 -2.87371
    endloop
  endfacet
  facet normal 0 -1 0
    outer loop
      vertex -4.71042 5.5 -1.93473
      vertex -5.33182 5.5 -3.779
      vertex 6.96604 5.5 -6.18929
    endloop
  endfacet
endsolid OpenSCAD_Model
